{
  "type": "object",
  "additionalProperties": false,
  "required": [
    "mobile_no",
    "otp"
  ],
  "properties": {
    "mobile_no": {
      "type": "string",
      "pattern": "^[0][1-9]\\d{9}$|^[1-9]\\d{9}$"
    },
    "otp": {
      "type": "string"
    }
  }
}
