{
  "$async": true,
  "type": "object",
  "additionalProperties": true,
  "required": [
    "cart_id",
    "payment_mode",
    "amount"
  ],
  "properties": {
    "cart_id": {
      "type": "number",
      "exists": {
        "table": "carts",
        "column": "id"
      }
    },
    "payment_mode": {
      "type": "string",
      "enum": [
        "wallet",
        "cod",
        "online"
      ]
    },
    "amount": {
      "type": "number"
    },
    "slot_time": {
      "type": "string"
    }
  }
}
